dump.vcd
$date
	Fri Oct 22 18:14:47 2021
$end
$version
	Icarus Verilog
$end
$timescale
	1ps
$end
$scope module tb_reg_mem $end
$var wire 8 ! data_out [7:0] $end
$var reg 5 " addr [4:0] $end
$var reg 1 # clk $end
$var reg 8 $ data_in [7:0] $end
$var reg 1 % wen $end
$upscope $end
$enddefinitions $end
#0
$dumpvars
1%
b1010 $
0#
b1100 "
bx !
$end
#1000
1#
#2000
b1101 "
b1011 $
0#
#3000
1#
#4000
b1110 "
b1100 $
0#
#5000
1#
#6000
b1111 "
b1101 $
0#
#7000
1#
#8000
b10000 "
b1110 $
0#
#9000
b0 !
1#
#10000
b10001 "
b1111 $
0#
#11000
1#
#12000
b10010 "
b10000 $
0#
#13000
1#
#14000
b10011 "
b10001 $
0#
#15000
1#
#16000
b10100 "
b10010 $
0#
#17000
1#
#18000
b10101 "
b10011 $
0#
#19000
1#
#20000
b10110 "
b10100 $
0#
#21000
1#
#22000
b10111 "
b10101 $
0#
#23000
1#
#24000
b11000 "
b10110 $
0#
#25000
1#
#26000
b11001 "
b10111 $
0#
#27000
1#
#28000
b11010 "
b11000 $
0#
#29000
1#
#30000
b11011 "
b11001 $
0#
#31000
1#
#32000
b11100 "
b11010 $
0#
#33000
1#
#34000
b11101 "
b11011 $
0#
#35000
1#
#36000
b11110 "
b11100 $
0#
#37000
1#
#38000
b11111 "
b11101 $
0#
#39000
1#
#40000
b0 "
b11110 $
0#
#41000
1#
#42000
b1 "
b11111 $
0#
#43000
1#
#44000
0%
0#
#45000
b1100 "
b1010 $
#46000
b1010 !
1#
#47000
b0 !
b1101 "
b1011 $
0#
#48000
b1011 !
1#
#49000
b0 !
b1110 "
b1100 $
0#
#50000
b1100 !
1#
#51000
b0 !
b1111 "
b1101 $
0#
#52000
b1101 !
1#
#53000
b10000 "
b1110 $
0#
#54000
b1110 !
1#
#55000
b10001 "
b1111 $
0#
#56000
b1111 !
1#
#57000
b10010 "
b10000 $
0#
#58000
b10000 !
1#
#59000
b10011 "
b10001 $
0#
#60000
b10001 !
1#
#61000
b10100 "
b10010 $
0#
#62000
b10010 !
1#
#63000
b10101 "
b10011 $
0#
#64000
b10011 !
1#
#65000
b10110 "
b10100 $
0#
#66000
b10100 !
1#
#67000
b10111 "
b10101 $
0#
#68000
b10101 !
1#
#69000
b11000 "
b10110 $
0#
#70000
b10110 !
1#
#71000
b11001 "
b10111 $
0#
#72000
b10111 !
1#
#73000
b11010 "
b11000 $
0#
#74000
b11000 !
1#
#75000
b11011 "
b11001 $
0#
#76000
b11001 !
1#
#77000
b11100 "
b11010 $
0#
#78000
b11010 !
1#
#79000
b11101 "
b11011 $
0#
#80000
b11011 !
1#
#81000
b11110 "
b11100 $
0#
#82000
b11100 !
1#
#83000
b11111 "
b11101 $
0#
#84000
b11101 !
1#
#85000
b0 "
b11110 $
0#
#86000
b11110 !
1#
#87000
b1 "
b11111 $
0#
#88000
b11111 !
1#
